<svg width="24" height="24" viewBox="0 0 24 24" fill="none" xmlns="http://www.w3.org/2000/svg">
<path d="M6.43245 14.0862L5.73627 16.6851L3.19176 16.7389C2.43133 15.3285 2 13.7148 2 11.9999C2 10.3417 2.40328 8.77792 3.11813 7.401H3.11868L5.384 7.81632L6.37635 10.068C6.16866 10.6736 6.05545 11.3236 6.05545 11.9999C6.05553 12.734 6.1885 13.4373 6.43245 14.0862Z" fill="#FBBB00"/>
<path d="M21.8254 10.132C21.9403 10.7369 22.0001 11.3616 22.0001 12.0001C22.0001 12.716 21.9249 13.4144 21.7815 14.088C21.2947 16.3803 20.0227 18.382 18.2606 19.7985L18.2601 19.7979L15.4068 19.6524L15.0029 17.1314C16.1721 16.4457 17.0859 15.3726 17.5672 14.088H12.2199V10.132H17.6452H21.8254Z" fill="#518EF8"/>
<path d="M18.2601 19.7977L18.2606 19.7983C16.5469 21.1757 14.3699 21.9999 12.0002 21.9999C8.19189 21.9999 4.8809 19.8714 3.19186 16.7389L6.43255 14.0862C7.27704 16.34 9.45123 17.9444 12.0002 17.9444C13.0957 17.9444 14.1222 17.6483 15.0029 17.1312L18.2601 19.7977Z" fill="#28B446"/>
<path d="M18.3831 4.3022L15.1435 6.9544C14.232 6.38463 13.1545 6.05549 12.0001 6.05549C9.39347 6.05549 7.17862 7.73351 6.37642 10.0682L3.11871 7.40112H3.11816C4.78247 4.19232 8.13522 2 12.0001 2C14.4265 2 16.6512 2.8643 18.3831 4.3022Z" fill="#F14336"/>
</svg>
