<svg width="173" height="600" viewBox="0 0 173 600" fill="none" xmlns="http://www.w3.org/2000/svg">
<path opacity="0.32" d="M-34 1C26 11 142.4 -3.39999 168 147C200 335 26 395 -8 599" stroke="url(#paint0_linear_0_667)" stroke-opacity="0.4"/>
<defs>
<linearGradient id="paint0_linear_0_667" x1="68.9543" y1="1" x2="68.9543" y2="599" gradientUnits="userSpaceOnUse">
<stop stop-color="#EF701B"/>
<stop offset="1" stop-color="#FDA635"/>
</linearGradient>
</defs>
</svg>
