<svg width="263" height="389" viewBox="0 0 263 389" fill="none" xmlns="http://www.w3.org/2000/svg">
<path opacity="0.32" d="M292.481 1C244.494 1.2317 131.549 14.902 63.6702 67.7295C-21.1777 133.764 -7.26824 219.956 31.6784 288.771C62.3636 342.989 120.004 383.257 181.205 387.475C242.407 391.694 285.99 369.403 305 358.976" stroke="url(#paint0_linear_0_904)" stroke-opacity="0.3"/>
<defs>
<linearGradient id="paint0_linear_0_904" x1="153" y1="1" x2="153" y2="388" gradientUnits="userSpaceOnUse">
<stop stop-color="#FA930C"/>
<stop offset="1" stop-color="#C7750A"/>
</linearGradient>
</defs>
</svg>
