<svg width="284" height="627" viewBox="0 0 284 627" fill="none" xmlns="http://www.w3.org/2000/svg">
<path opacity="0.7" d="M302.786 4.95491C279.049 13.8737 259.728 41.0175 156.221 4.95491C31.1848 -29.9449 -37.1266 172.414 23.3213 364.362C83.7692 556.309 183.546 460.022 232.401 540.291C281.256 620.56 263.973 622.51 312 626" stroke="url(#paint0_linear_0_882)" stroke-opacity="0.4"/>
<defs>
<linearGradient id="paint0_linear_0_882" x1="134.229" y1="-1.03006" x2="134.229" y2="657.577" gradientUnits="userSpaceOnUse">
<stop stop-color="#C7750A"/>
<stop offset="1" stop-color="#FA930C"/>
</linearGradient>
</defs>
</svg>
