<svg width="18" height="22" viewBox="0 0 18 22" fill="none" xmlns="http://www.w3.org/2000/svg">
<path d="M9 0C4.03768 0 9.16243e-05 3.9479 9.16243e-05 8.7945C-0.032533 15.884 8.658 21.7624 9 22C9 22 18.0325 15.884 17.9999 8.8C17.9999 3.9479 13.9623 0 9 0ZM9 13.2C6.51378 13.2 4.50005 11.231 4.50005 8.8C4.50005 6.369 6.51378 4.4 9 4.4C11.4862 4.4 13.5 6.369 13.5 8.8C13.5 11.231 11.4862 13.2 9 13.2Z" fill="#D7810F"/>
</svg>
