<svg width="278" height="180" viewBox="0 0 278 180" fill="none" xmlns="http://www.w3.org/2000/svg">
<path d="M270.809 129.473L270.903 131.07L267.473 130.929L267.566 125.713L128.695 123.269C128.695 123.269 136.214 141.879 137.201 141.926C138.188 141.973 267.379 138.919 267.379 138.919L267.425 136.71H271.326L271.514 139.436H274.757L275.368 129.144L270.809 129.473Z" fill="#0D0418"/>
<path d="M275.128 137.479H274.223V130.959H275.453L275.128 137.479Z" fill="#C7750A" stroke="black"/>
<path d="M254.548 127.593C250.507 127.593 247.264 133.749 247.264 141.315C247.264 148.882 250.507 155.038 254.548 155.038H262.49V127.593H254.548Z" fill="#0D0418"/>
<path d="M262.491 155.038C266.514 155.038 269.775 148.894 269.775 141.315C269.775 133.737 266.514 127.593 262.491 127.593C258.468 127.593 255.206 133.737 255.206 141.315C255.206 148.894 258.468 155.038 262.491 155.038Z" fill="#0D0418"/>
<path d="M263.149 149.587C265.563 149.587 267.52 145.884 267.52 141.316C267.52 136.747 265.563 133.044 263.149 133.044C260.735 133.044 258.779 136.747 258.779 141.316C258.779 145.884 260.735 149.587 263.149 149.587Z" fill="#4C4851"/>
<path d="M263.149 145.216C264.291 145.216 265.216 143.47 265.216 141.316C265.216 139.161 264.291 137.415 263.149 137.415C262.007 137.415 261.081 139.161 261.081 141.316C261.081 143.47 262.007 145.216 263.149 145.216Z" fill="#3D3941"/>
<path d="M232.461 127.546C227.667 127.546 223.767 134.877 223.767 143.947C223.767 153.017 227.667 160.349 232.461 160.349H241.954V127.546H232.461Z" fill="#0D0418"/>
<path d="M241.954 160.349C246.755 160.349 250.648 153.005 250.648 143.947C250.648 134.889 246.755 127.546 241.954 127.546C237.152 127.546 233.26 134.889 233.26 143.947C233.26 153.005 237.152 160.349 241.954 160.349Z" fill="#0D0418"/>
<path d="M242.753 153.863C245.66 153.863 248.017 149.424 248.017 143.947C248.017 138.471 245.66 134.031 242.753 134.031C239.846 134.031 237.49 138.471 237.49 143.947C237.49 149.424 239.846 153.863 242.753 153.863Z" fill="#4C4851"/>
<path d="M242.753 148.6C244.128 148.6 245.243 146.517 245.243 143.947C245.243 141.378 244.128 139.295 242.753 139.295C241.377 139.295 240.262 141.378 240.262 143.947C240.262 146.517 241.377 148.6 242.753 148.6Z" fill="#3D3941"/>
<path d="M217 131.211V145.874L235.422 143.054V131.164L217 131.211Z" fill="#3D3941"/>
<path d="M216.999 131.211H204.639L206.237 145.874H216.999V131.211Z" fill="#4C4851"/>
<path d="M191.763 125.713C185.747 125.713 180.86 134.924 180.86 146.297C180.86 157.67 185.747 166.881 191.763 166.881H203.653V125.76H191.763V125.713Z" fill="#0D0418"/>
<path d="M203.653 166.881C209.675 166.881 214.556 157.665 214.556 146.297C214.556 134.929 209.675 125.713 203.653 125.713C197.632 125.713 192.75 134.929 192.75 146.297C192.75 157.665 197.632 166.881 203.653 166.881Z" fill="#0D0418"/>
<path d="M204.64 158.704C208.274 158.704 211.22 153.149 211.22 146.297C211.22 139.445 208.274 133.89 204.64 133.89C201.006 133.89 198.061 139.445 198.061 146.297C198.061 153.149 201.006 158.704 204.64 158.704Z" fill="#4C4851"/>
<path d="M204.64 152.124C206.353 152.124 207.742 149.515 207.742 146.297C207.742 143.078 206.353 140.469 204.64 140.469C202.927 140.469 201.538 143.078 201.538 146.297C201.538 149.515 202.927 152.124 204.64 152.124Z" fill="#3D3941"/>
<path d="M179.351 160.133L179.349 160.134L156.718 162.586L139.598 127.341H183.443L184.966 153.513C184.966 153.514 184.966 153.514 184.966 153.515C185.14 156.873 182.699 159.786 179.351 160.133Z" fill="#C7750A" stroke="black"/>
<path d="M149.326 126.841H124.559C127.473 132.433 132.689 145.169 130.716 162.416L156.422 163.168C157.315 159.644 157.832 155.696 157.832 151.514C157.785 140.47 154.307 131.023 149.326 126.841Z" fill="#0D0418"/>
<path d="M161.544 149.634L161.779 155.367L166.103 155.038L166.384 149.634H161.544Z" fill="#7A582B"/>
<path d="M160.887 137.368L161.544 143.618H166.103L166.385 136.992L160.887 137.368Z" fill="#7A582B"/>
<path d="M156.469 131.259L157.268 134.266L182.316 133.89V131.118L156.469 131.259Z" fill="#7A582B"/>
<path d="M175.126 150.245C175.126 152.406 174.045 154.192 172.729 154.192C171.413 154.192 170.332 152.406 170.332 150.245C170.332 148.083 171.413 146.297 172.729 146.297C174.045 146.297 175.126 148.083 175.126 150.245Z" fill="#FF950C"/>
<path d="M157.034 0L157.41 128.956L63.1835 129.708L57.873 4.69955L157.034 0Z" fill="#3D3941"/>
<path d="M64.2177 12.0778L68.8232 125.619L150.736 123.598V8.13017L64.2177 12.0778Z" fill="#100A16"/>
<path d="M140.491 7.14335L150.736 6.57941C151.206 6.53241 151.582 7.00237 151.535 7.51932L151.347 10.621C151.3 11.091 150.971 11.4199 150.548 11.4199H140.773C140.397 11.4199 140.068 11.091 139.974 10.668L139.692 8.13026C139.692 7.61331 140.021 7.14335 140.491 7.14335ZM62.5729 10.48L62.8079 12.4068C62.9018 13.2528 63.6538 13.9107 64.4997 13.9107L73.3818 13.6757C74.2278 13.6287 74.9327 12.9708 74.9797 12.1249L75.1207 10.48C75.2147 9.49313 74.4157 8.64721 73.4758 8.64721H64.2647C63.2308 8.60021 62.4319 9.49313 62.5729 10.48Z" fill="#FA930C"/>
<path d="M157.033 0L278 53.9038L276.825 127.076L157.409 128.956L157.033 0Z" fill="#4C4851"/>
<path d="M165.915 13.8637L165.492 121.248L272.407 121.577L270.527 57.7105L165.915 13.8637Z" fill="#0D0418"/>
<path d="M199.706 121.342H197.873V27.2573L199.706 28.0563V121.342ZM206.426 30.829L204.593 30.0301V121.342H206.426V30.829ZM213.146 33.6487L211.314 32.8498V121.342H213.146V33.6487ZM192.938 25.1895L191.105 24.3906V121.295H192.938V25.1895ZM219.914 36.4685L218.081 35.6695V121.389H219.914V36.4685ZM179.498 19.5501L177.665 18.7512V121.248H179.498V19.5501ZM186.218 22.3698L184.385 21.5709V121.295H186.218V22.3698ZM170.897 121.248H172.73V16.7303L170.897 15.9314V121.248ZM260.283 53.4338L258.45 52.6349V121.53H260.283V53.4338ZM253.562 50.6141L251.73 49.8152V121.483H253.562V50.6141ZM267.05 56.2536L265.217 55.4546V121.53H267.05V56.2536ZM246.842 47.7944L245.009 46.9954V121.483H246.842V47.7944ZM233.354 42.1549L231.522 41.356V121.436H233.354V42.1549ZM226.634 39.3352L224.801 38.5363V121.436H226.634V39.3352ZM240.075 44.9746L238.242 44.1757V121.483H240.075V44.9746Z" fill="#4C4851"/>
<path d="M173.974 15.7925L173.988 15.7973L174.002 15.8013C174.114 15.8334 174.157 15.9175 174.157 15.9785V17.5764C174.157 17.6355 174.13 17.6927 174.052 17.7378C173.971 17.7853 173.839 17.8105 173.688 17.7602C173.687 17.7601 173.687 17.76 173.687 17.76L166.31 15.2698L166.299 15.266L166.288 15.2628C166.176 15.2307 166.134 15.1466 166.134 15.0856V13.3938C166.134 13.3686 166.151 13.3034 166.247 13.2447C166.337 13.1895 166.465 13.165 166.6 13.2092L173.974 15.7925ZM266.377 56.4896L266.375 56.4887V55.7107L270.73 57.2396L270.647 58.0676L266.377 56.4896ZM268.908 121.782L268.866 121.231H272.988V121.782H268.908ZM170.259 120.338L170.273 120.339H170.286C170.321 120.339 170.355 120.352 170.386 120.386C170.417 120.421 170.441 120.472 170.444 120.531L170.352 121.855C170.341 121.931 170.309 121.983 170.276 122.014C170.244 122.045 170.202 122.064 170.145 122.064H164.083C163.983 122.064 163.878 121.959 163.878 121.859V120.167C163.878 120.08 163.957 119.994 164.074 120.007L164.089 120.008L164.103 120.009L170.259 120.338Z" fill="#C7750A" stroke="black"/>
<path d="M14.0732 76.2267C14.8251 82.4301 14.7311 89.1505 14.0262 96.2468C13.8852 97.7506 12.6633 98.9255 11.1595 99.0195C8.7627 99.1605 6.17795 99.0665 3.92216 98.7845C2.55929 98.5966 1.4784 97.5157 1.33741 96.1528C0.444497 89.1975 -0.119447 82.5711 0.0215399 76.0857C0.0685354 74.4409 1.4314 73.078 3.07625 73.078C5.84898 73.078 8.85669 73.266 11.4884 73.642C12.8513 73.7829 13.8852 74.8638 14.0732 76.2267Z" fill="#0D0418"/>
<path d="M13.0859 66.3106C13.0389 65.6527 13.2738 65.0417 13.7438 64.5718C14.2138 64.1018 14.7777 63.8199 15.4356 63.8199L17.4094 63.7729C17.5974 63.3499 18.0204 63.0679 18.5373 63.0679H21.827C22.485 63.0679 23.0489 63.6319 23.0489 64.2898V65.1827C23.0489 65.8407 22.485 66.4046 21.827 66.4046H18.5373C18.1144 66.4046 17.7384 66.1696 17.5034 65.8407L15.4826 65.8877C15.3416 65.8877 15.2477 65.9817 15.2477 65.9817C15.2007 66.0286 15.1537 66.1226 15.1537 66.2636L11.1121 96.3877L16.4225 98.7375V98.6435C16.4225 97.6096 17.2685 96.7637 18.3024 96.7637H21.2161C22.25 96.7637 23.0959 97.6096 23.0959 98.6435V101.557C23.0959 102.591 22.25 103.437 21.2161 103.437H18.3024C17.2685 103.437 16.4225 102.591 16.4225 101.557V100.899L9.04425 97.7036L13.0859 66.3106Z" fill="#0D0418"/>
<path d="M52.4685 131.117H38.6048C31.6025 131.117 25.916 141.832 25.916 155.085C25.916 168.338 31.6025 179.053 38.6048 179.053H52.4685C59.4708 179.053 65.1572 168.338 65.1572 155.085C65.1572 141.832 59.4708 131.117 52.4685 131.117Z" fill="#0D0418"/>
<path d="M118.685 163.732H15.1539V172.802H118.685V163.732Z" fill="#4C4851"/>
<path d="M122.821 131.118C115.818 131.118 110.132 141.832 110.132 155.085C110.132 168.338 115.818 179.053 122.821 179.053H136.637V131.118H122.821Z" fill="#0D0418"/>
<path d="M136.637 179.006C143.645 179.006 149.326 168.275 149.326 155.038C149.326 141.801 143.645 131.07 136.637 131.07C129.629 131.07 123.948 141.801 123.948 155.038C123.948 168.275 129.629 179.006 136.637 179.006Z" fill="#0D0418"/>
<path d="M137.812 169.513C142.043 169.513 145.473 163.032 145.473 155.038C145.473 147.044 142.043 140.563 137.812 140.563C133.582 140.563 130.152 147.044 130.152 155.038C130.152 163.032 133.582 169.513 137.812 169.513Z" fill="#4C4851"/>
<path d="M137.813 161.852C139.812 161.852 141.432 158.802 141.432 155.038C141.432 151.275 139.812 148.224 137.813 148.224C135.814 148.224 134.194 151.275 134.194 155.038C134.194 158.802 135.814 161.852 137.813 161.852Z" fill="#3D3941"/>
<path d="M66.2854 18.7512C49.9779 19.2682 34.9394 34.3537 26.9501 51.1781C11.9586 82.7121 14.7313 131.399 16.9401 149.023C17.3631 152.312 19.4778 154.709 21.9686 154.709H99.4642L141.431 17.3413L66.2854 18.7512Z" fill="#FA930C"/>
<mask id="path-39-inside-1_0_917" fill="white">
<path d="M110.555 17.9052H110.038C108.393 21.1479 105.902 25.4715 102.519 29.7011C96.5503 37.1264 86.4933 45.7265 72.0186 45.7265C71.4547 45.7265 70.8438 45.7265 70.2328 45.6795C63.4185 45.3506 59.2829 43.4708 58.014 40.0871C55.7582 34.0247 62.9955 24.3906 68.024 18.7041H67.3661C62.2906 24.5316 55.2883 34.0247 57.591 40.2751C58.9069 43.8467 63.1835 45.8205 70.1858 46.1495C70.7968 46.1965 71.4077 46.1965 71.9716 46.1965C86.6342 46.1965 96.8323 37.4553 102.848 29.9831C106.372 25.6595 108.91 21.1949 110.555 17.9052Z"/>
</mask>
<path d="M110.555 17.9052H110.038C108.393 21.1479 105.902 25.4715 102.519 29.7011C96.5503 37.1264 86.4933 45.7265 72.0186 45.7265C71.4547 45.7265 70.8438 45.7265 70.2328 45.6795C63.4185 45.3506 59.2829 43.4708 58.014 40.0871C55.7582 34.0247 62.9955 24.3906 68.024 18.7041H67.3661C62.2906 24.5316 55.2883 34.0247 57.591 40.2751C58.9069 43.8467 63.1835 45.8205 70.1858 46.1495C70.7968 46.1965 71.4077 46.1965 71.9716 46.1965C86.6342 46.1965 96.8323 37.4553 102.848 29.9831C106.372 25.6595 108.91 21.1949 110.555 17.9052Z" fill="#C7750A"/>
<path d="M110.555 17.9052L111.449 18.3524L112.173 16.9052H110.555V17.9052ZM110.038 17.9052V16.9052H109.424L109.146 17.4528L110.038 17.9052ZM102.519 29.7011L103.298 30.3276L103.3 30.3258L102.519 29.7011ZM70.2328 45.6795L70.3095 44.6825L70.2953 44.6814L70.281 44.6807L70.2328 45.6795ZM58.014 40.0871L57.0768 40.4358L57.0777 40.4382L58.014 40.0871ZM68.024 18.7041L68.7731 19.3666L70.2432 17.7041H68.024V18.7041ZM67.3661 18.7041V17.7041H66.9109L66.612 18.0474L67.3661 18.7041ZM57.591 40.2751L58.5294 39.9294L57.591 40.2751ZM70.1858 46.1495L70.2625 45.1524L70.2477 45.1513L70.2328 45.1506L70.1858 46.1495ZM102.848 29.9831L102.073 29.3512L102.069 29.356L102.848 29.9831ZM110.555 16.9052H110.038V18.9052H110.555V16.9052ZM109.146 17.4528C107.522 20.6556 105.066 24.9161 101.738 29.0764L103.3 30.3258C106.739 26.0269 109.265 21.6402 110.93 18.3576L109.146 17.4528ZM101.739 29.0746C95.8599 36.3891 86.0595 44.7265 72.0186 44.7265V46.7265C86.927 46.7265 97.2407 37.8636 103.298 30.3276L101.739 29.0746ZM72.0186 44.7265C71.4491 44.7265 70.8761 44.7261 70.3095 44.6825L70.1561 46.6766C70.8115 46.727 71.4603 46.7265 72.0186 46.7265V44.7265ZM70.281 44.6807C66.9419 44.5195 64.3443 43.9805 62.4594 43.1193C60.5913 42.2657 59.4697 41.1208 58.9503 39.736L57.0777 40.4382C57.8272 42.437 59.4078 43.9238 61.6283 44.9384C63.832 45.9452 66.7094 46.5106 70.1846 46.6784L70.281 44.6807ZM58.9512 39.7383C58.4793 38.4701 58.4801 36.9475 58.892 35.22C59.3033 33.4949 60.1092 31.6327 61.1614 29.7406C63.266 25.9557 66.2781 22.1881 68.7731 19.3666L67.2749 18.0417C64.7414 20.9067 61.6206 24.7993 59.4134 28.7686C58.3096 30.7537 57.4149 32.7921 56.9465 34.7561C56.4788 36.7178 56.4208 38.6729 57.0768 40.4358L58.9512 39.7383ZM68.024 17.7041H67.3661V19.7041H68.024V17.7041ZM66.612 18.0474C64.0559 20.9822 60.9807 24.8771 58.8318 28.8558C56.7165 32.7723 55.3401 37.0581 56.6527 40.6208L58.5294 39.9294C57.5392 37.2416 58.5125 33.6557 60.5916 29.8062C62.6371 26.0189 65.6008 22.2535 68.1202 19.3609L66.612 18.0474ZM56.6527 40.6208C58.1996 44.8195 63.0945 46.8175 70.1389 47.1484L70.2328 45.1506C63.2725 44.8236 59.6142 42.874 58.5294 39.9294L56.6527 40.6208ZM70.1091 47.1466C70.7645 47.197 71.4133 47.1965 71.9716 47.1965V45.1965C71.4021 45.1965 70.8291 45.196 70.2625 45.1524L70.1091 47.1466ZM71.9716 47.1965C87.0685 47.1965 97.523 38.192 103.627 30.6101L102.069 29.356C96.1415 36.7187 86.2 45.1965 71.9716 45.1965V47.1965ZM103.623 30.6149C107.209 26.216 109.784 21.6827 111.449 18.3524L109.661 17.458C108.036 20.7071 105.536 25.1029 102.073 29.3512L103.623 30.6149Z" fill="black" mask="url(#path-39-inside-1_0_917)"/>
<mask id="path-41-inside-2_0_917" fill="white">
<path d="M26.057 53.1048H130.528L130.81 52.1649H26.48C26.292 52.4939 26.151 52.8229 26.057 53.1048Z"/>
</mask>
<path d="M26.057 53.1048H130.528L130.81 52.1649H26.48C26.292 52.4939 26.151 52.8229 26.057 53.1048Z" fill="#C7750A"/>
<path d="M26.057 53.1048L25.1083 52.7886L24.6696 54.1048H26.057V53.1048ZM130.528 53.1048V54.1048H131.272L131.486 53.3922L130.528 53.1048ZM130.81 52.1649L131.768 52.4523L132.154 51.1649H130.81V52.1649ZM26.48 52.1649V51.1649H25.8996L25.6117 51.6688L26.48 52.1649ZM26.057 54.1048H130.528V52.1048H26.057V54.1048ZM131.486 53.3922L131.768 52.4523L129.852 51.8776L129.57 52.8175L131.486 53.3922ZM130.81 51.1649H26.48V53.1649H130.81V51.1649ZM25.6117 51.6688C25.3896 52.0575 25.2222 52.447 25.1083 52.7886L27.0057 53.4211C27.0798 53.1987 27.1944 52.9303 27.3482 52.6611L25.6117 51.6688Z" fill="black" mask="url(#path-41-inside-2_0_917)"/>
<path d="M130.152 122.047L130.129 121.548L130.097 121.549L130.067 121.555L130.152 122.047ZM130.152 122.047C130.129 121.548 130.129 121.548 130.129 121.548L130.129 121.548L130.131 121.548L130.136 121.547L130.158 121.546L130.245 121.543C130.321 121.539 130.433 121.535 130.577 121.529C130.866 121.517 131.287 121.502 131.812 121.485C132.862 121.452 134.331 121.415 136.01 121.4C139.189 121.373 143.135 121.424 146.405 121.732C147.29 100.264 148.194 71.1433 145.773 35.0937C145.633 33.1703 145.027 28.7214 144.093 24.7881C143.625 22.8184 143.082 21.0061 142.486 19.7106C142.187 19.0603 141.888 18.5711 141.601 18.2586C141.311 17.943 141.098 17.8755 140.955 17.8866C138.044 18.1361 134.844 19.4247 131.579 21.4794C128.318 23.5316 125.02 26.3302 121.918 29.5599C115.712 36.0235 110.337 44.1676 107.64 51.3998L107.639 51.3999C100.576 70.3226 98.6361 96.1188 98.4717 117.228C98.3895 127.774 98.7504 137.134 99.1318 143.858C99.3225 147.219 99.5182 149.921 99.6663 151.782C99.7403 152.713 99.8024 153.433 99.846 153.92C99.8553 154.025 99.8638 154.119 99.8714 154.202L119.283 153.889C118.43 139.054 120.992 130.987 123.859 126.608C125.311 124.391 126.835 123.13 128.015 122.421C128.604 122.067 129.104 121.853 129.464 121.726C129.644 121.662 129.788 121.62 129.891 121.594C129.942 121.581 129.983 121.572 130.012 121.565C130.027 121.562 130.039 121.56 130.048 121.558L130.06 121.556L130.064 121.555L130.065 121.555C130.066 121.555 130.067 121.555 130.152 122.047Z" fill="#C7750A" stroke="black"/>
<path d="M106.466 53.1048H147.258C147.258 52.7758 147.211 52.4939 147.211 52.1649H106.795C106.701 52.4939 106.56 52.8228 106.466 53.1048Z" fill="#7A582B"/>
<path d="M27.3729 132.527L31.9784 147.707H76.3422L82.1226 132.527H27.3729Z" fill="#0D0418"/>
<path d="M16.7524 109.687L14.6846 111.05C12.0998 112.742 10.502 115.656 10.502 118.805V128.627C10.502 131.54 11.8648 134.313 14.1676 136.052L16.3764 137.744C17.4573 138.543 18.7262 138.966 20.089 138.966H95.5168L96.9736 137.791C99.9814 135.347 101.767 131.634 101.767 127.687V111.097L94.9998 107.667L16.7524 109.687Z" fill="#FA930C"/>
<path d="M39.9679 108.841L41.2838 111.755C41.5658 112.319 42.1297 112.695 42.7406 112.695H62.7137C63.3247 112.695 63.8886 112.319 64.1706 111.755L65.3925 109.217C65.9094 108.137 65.1575 106.915 63.9826 106.915L41.4718 106.539C40.2969 106.586 39.498 107.761 39.9679 108.841Z" fill="#FFF5DF"/>
<path d="M69.7161 112.319L67.9302 114.622C67.4133 115.28 66.6614 115.656 65.8154 115.703L42.5057 116.173C41.7537 116.173 41.0018 115.891 40.4849 115.327L37.7591 112.507C37.2422 111.943 36.4903 111.661 35.7383 111.661L26.3392 111.755C24.6944 111.755 23.4255 113.259 23.6605 114.904C24.2244 119.134 25.4463 123.034 27.6081 126.512C29.7699 129.99 33.6235 132.01 37.6651 132.01H69.3401C72.8648 132.01 76.2014 130.46 78.4572 127.781C81.7469 123.88 83.7207 119.322 84.6606 114.293C84.9896 112.601 83.6267 111.05 81.9349 111.05L71.8309 111.191C70.9849 111.238 70.233 111.661 69.7161 112.319Z" fill="#3D3941"/>
<path d="M85.506 112.037C84.801 110.674 83.4382 109.922 81.9343 109.922L71.8773 110.063C70.6554 110.063 69.4805 110.674 68.7756 111.614L66.9898 113.917C66.7078 114.293 66.2848 114.528 65.8149 114.528L42.5051 114.998C42.0821 114.998 41.6592 114.857 41.3772 114.528L38.6515 111.708C37.8995 110.909 36.8656 110.486 35.7378 110.486L26.4326 110.58C25.8687 110.58 25.3048 110.674 24.7408 110.909C23.096 111.661 22.2031 113.4 22.438 115.092C23.096 119.792 24.4118 123.739 26.5736 127.17C28.9234 130.929 33.153 133.279 37.6646 133.279H69.3395C73.2402 133.279 76.9058 131.587 79.3966 128.627C82.6862 124.679 84.848 120.026 85.8349 114.669C86.0229 113.776 85.9289 112.836 85.506 112.037ZM77.5637 127.076C75.5429 129.473 72.5822 130.882 69.3865 130.882H37.7116C34.0459 130.882 30.5682 129.003 28.6414 125.948C28.6414 125.901 28.5944 125.901 28.5944 125.854C27.9365 124.773 28.7354 123.316 30.0043 123.316H77.0938C78.4567 123.316 79.2556 124.867 78.4097 125.995C78.1277 126.324 77.8457 126.7 77.5637 127.076ZM83.4852 114.199C83.2032 115.797 82.7802 117.348 82.2163 118.852C81.6054 120.496 80.0075 121.577 78.2687 121.577H29.4874C27.6545 121.577 26.0567 120.355 25.5867 118.57C25.3048 117.395 25.0228 116.173 24.8818 114.857C24.8348 114.481 24.8818 114.058 25.0698 113.729C25.3518 113.259 25.8217 113.024 26.3387 113.024L35.7378 112.93C36.1607 112.93 36.5837 113.118 36.8656 113.4L39.5444 116.22C40.2963 117.019 41.3772 117.442 42.4581 117.442L65.7679 116.972C66.9898 116.925 68.0706 116.408 68.8226 115.421L70.6084 113.118C70.8904 112.742 71.3133 112.507 71.8303 112.507L81.9343 112.366C82.4983 112.366 83.0622 112.648 83.3442 113.212C83.5322 113.494 83.5322 113.87 83.4852 114.199Z" fill="#0D0418"/>
<path d="M146.109 122.585L142.106 129.642C142.078 129.631 142.048 129.619 142.017 129.607C141.693 129.485 141.227 129.323 140.651 129.161C139.499 128.837 137.898 128.512 136.104 128.509C132.496 128.502 128.113 129.809 125.114 135.003L125.113 135.004C124.259 136.489 123.665 138.595 123.246 140.876C122.825 143.166 122.572 145.678 122.422 148.004C122.271 150.33 122.222 152.479 122.211 154.045C122.206 154.828 122.21 155.466 122.215 155.909C122.216 155.965 122.216 156.018 122.217 156.067L114.135 155.731C114.101 155.502 114.055 155.179 114.005 154.773C113.896 153.903 113.762 152.653 113.663 151.143C113.465 148.12 113.409 144.064 113.97 139.914C115.097 131.574 118.667 123.095 128.306 121.507C132.04 120.908 136.647 121.206 140.348 121.662C142.192 121.89 143.801 122.156 144.948 122.364C145.418 122.45 145.81 122.526 146.109 122.585Z" fill="#C7750A" stroke="black"/>
<path d="M123.526 115.421L124.278 119.745C124.419 120.684 125.312 121.342 126.251 121.248L127.755 121.107C128.601 121.013 129.259 120.402 129.4 119.604L130.105 115.468C130.293 114.387 129.447 113.353 128.366 113.353L125.406 113.259C124.231 113.212 123.338 114.246 123.526 115.421Z" fill="#4C4851"/>
<path d="M133.865 95.0249L134.288 108.184C134.335 109.593 135.087 110.721 136.027 110.721H140.914C141.854 110.721 142.606 109.64 142.653 108.184L143.123 95.1659C143.17 93.662 142.418 92.3931 141.384 92.3461L135.557 92.2051C134.617 92.2051 133.818 93.521 133.865 95.0249Z" stroke="#FBB458" stroke-opacity="0.9" stroke-miterlimit="10"/>
<path d="M108.252 128.721V130.365C108.252 130.882 108.675 131.305 109.192 131.305H115.818C116.335 131.305 116.711 130.882 116.758 130.412V128.768C116.758 128.251 116.335 127.828 115.818 127.828H109.145C108.675 127.781 108.252 128.204 108.252 128.721Z" fill="#FA930C"/>
<path d="M109.38 129.096V129.848C109.38 130.083 109.568 130.271 109.803 130.271H112.905C113.14 130.271 113.328 130.083 113.328 129.848V129.096C113.328 128.861 113.14 128.674 112.905 128.674H109.85C109.568 128.674 109.38 128.861 109.38 129.096Z" fill="#FFE08A"/>
<path d="M120.802 144.823L120.817 144.823L120.832 144.822C122.66 144.705 124.375 146.479 124.388 148.9L122.418 165.318L122.414 165.347V165.377C122.414 167.776 120.817 169.53 119.061 169.53H98.4599V146.062V146.062V146.061V146.061V146.061V146.06V146.06V146.059V146.059V146.058V146.058V146.057V146.056V146.056V146.055V146.054V146.053V146.053V146.052V146.051V146.05V146.049V146.048V146.047V146.046V146.045V146.044V146.043V146.041V146.04V146.039V146.038V146.036V146.035V146.034V146.032V146.031V146.029V146.028V146.026V146.025V146.023V146.022V146.02V146.019V146.017V146.015V146.013V146.012V146.01V146.008V146.006V146.004V146.002V146.001V145.999V145.997V145.995V145.993V145.99V145.988V145.986V145.984V145.982V145.98V145.978V145.975V145.973V145.971V145.968V145.966V145.964V145.961V145.959V145.957V145.954V145.952V145.949V145.946V145.944V145.941V145.939V145.936V145.933V145.931V145.928V145.925V145.923V145.92V145.917V145.914V145.911V145.908V145.906V145.903V145.9V145.897V145.894V145.891V145.888V145.885V145.882V145.879V145.876V145.872V145.869V145.866V145.863V145.86V145.857V145.853V145.85V145.847V145.844V145.84V145.837V145.834V145.83V145.827V145.823V145.82V145.816V145.813V145.81V145.806V145.802V145.799V145.795V145.792V145.788V145.785V145.781V145.777V145.774V145.77V145.766V145.763V145.759V145.755V145.751V145.748V145.744V145.74V145.736V145.732V145.729V145.725V145.721V145.717V145.713V145.709V145.705V145.701V145.697V145.693V145.689V145.685V145.681V145.677V145.673V145.669V145.665V145.661V145.657V145.653V145.649V145.645V145.64V145.636V145.632V145.628V145.624V145.62V145.615V145.611V145.607V145.603V145.598V145.594V145.59V145.586V145.581V145.577V145.573V145.568V145.564V145.56V145.555V145.551V145.547V145.542V145.538V145.533V145.529V145.525V145.52V145.516V145.511V145.507V145.502V145.498V145.493V145.489V145.484V145.48V145.475V145.471V145.466V145.462V145.457V145.453V145.448V145.444V145.439V145.435V145.43V145.425V145.421V145.416V145.412V145.407V145.403V145.398V145.393V145.389V145.384V145.379V145.375V145.37V145.366V145.361V145.356V145.352V145.347V145.342V145.338V145.333V145.328V145.324V145.319V145.314V145.31V145.305V145.3V145.296V145.291V145.286V145.282V145.277V145.272V145.268V145.263V145.258V145.254V145.249V145.244V145.24V145.235V145.23V145.226V145.221V145.216V145.212V145.207V145.202V145.198V145.193V145.188V145.183V145.179V145.174V145.169V145.165V145.16V145.155V145.151V145.146V145.142V145.137V145.132V145.128V145.123V145.118V145.114V145.109V145.104V145.1V145.095V145.091V145.086V145.081V145.077V145.072V145.068V145.063V145.058V145.054V145.049V145.045V145.04V145.036V145.031V145.026V145.022V145.017V145.013V145.008V145.004V144.999V144.995V144.99V144.986V144.981V144.977V144.972V144.968V144.964V144.959V144.955V144.95V144.946V144.942V144.937V144.933V144.928V144.924V144.92V144.915V144.915L120.802 144.823Z" fill="#C7750A" stroke="black"/>
<path d="M109.004 64.1019C105.667 73.407 103.646 95.7769 104.304 108.654C104.398 110.063 105.244 111.144 106.278 111.144H110.837C111.401 111.144 111.918 110.815 112.294 110.251L128.789 81.4902C129.118 80.9733 129.306 80.3623 129.306 79.6574V64.8068C129.306 63.303 128.413 62.0811 127.332 62.1281L110.79 62.5511C110.038 62.598 109.333 63.209 109.004 64.1019Z" fill="#CBE3F8"/>
<path d="M110.837 112.225H106.278C104.681 112.225 103.412 110.721 103.271 108.748C102.613 95.8709 104.54 73.407 108.017 63.7729C108.487 62.4571 109.521 61.6111 110.696 61.6111L127.238 61.1882C127.943 61.1882 128.601 61.4702 129.165 61.9871C129.87 62.692 130.293 63.7729 130.293 64.9008V79.7514C130.293 80.5973 130.058 81.4432 129.635 82.1012L113.14 110.862L113.093 110.909C112.576 111.708 111.73 112.225 110.837 112.225ZM127.332 63.209L110.79 63.632C110.508 63.632 110.179 63.9609 109.991 64.4309C106.654 73.689 104.728 96.1998 105.339 108.607C105.386 109.5 105.855 110.157 106.278 110.157H110.837C111.025 110.157 111.213 110.017 111.401 109.782L127.896 81.0203L127.943 80.9733C128.178 80.6443 128.272 80.1744 128.272 79.7514V64.9008C128.272 64.3369 128.084 63.7729 127.755 63.444C127.614 63.303 127.473 63.209 127.332 63.209Z" fill="#4C4851"/>
<path d="M104.211 100.382C104.164 103.39 104.164 106.163 104.305 108.654C104.399 110.063 105.245 111.144 106.279 111.144H110.837C111.401 111.144 111.918 110.815 112.294 110.251L117.981 100.335H104.211V100.382Z" fill="#4C4851"/>
<path d="M113.139 76.2267C112.387 82.4301 112.481 89.1505 113.186 96.2468C113.327 97.7506 114.549 98.9255 116.053 99.0195C118.45 99.1605 121.035 99.0665 123.29 98.7845C124.653 98.5966 125.734 97.5157 125.875 96.1528C126.768 89.1975 127.332 82.5711 127.191 76.0857C127.144 74.4409 125.781 73.078 124.136 73.078C121.364 73.078 118.356 73.266 115.724 73.642C114.361 73.7829 113.327 74.8638 113.139 76.2267Z" fill="#0D0418"/>
<path d="M119.108 66.3106C119.155 65.6526 118.92 65.0417 118.45 64.5717C117.98 64.1018 117.416 63.8198 116.758 63.8198L114.784 63.7728C114.596 63.3499 114.173 63.0679 113.656 63.0679H110.367C109.709 63.0679 109.145 63.6318 109.145 64.2898V65.1827C109.145 65.8406 109.709 66.4046 110.367 66.4046H113.656C114.079 66.4046 114.455 66.1696 114.69 65.8406L116.711 65.8876C116.852 65.8876 116.946 65.9816 116.946 65.9816C116.993 66.0286 117.04 66.1226 117.04 66.2636L115.724 96.3877L110.414 98.7375V98.6435C110.414 97.6096 109.568 96.7636 108.534 96.7636H105.62C104.586 96.7636 103.74 97.6096 103.74 98.6435V101.557C103.74 102.591 104.586 103.437 105.62 103.437H108.534C109.568 103.437 110.414 102.591 110.414 101.557V100.899L117.698 97.7035L119.108 66.3106Z" fill="#0D0418"/>
<path d="M77.0521 145.812L87.9822 121.784L88.014 121.715L88.0233 121.638L92.0032 89.1974L92.0458 89.2032L88.0271 121.722L77.0798 145.825L77.0521 145.812ZM17.5228 121.578L17.5106 121.71L17.5654 121.831L24.3241 136.723L17.4968 121.726L20.4469 89.5057L20.4845 89.5091L17.5228 121.578Z" fill="#C7750A" stroke="black"/>
<path d="M87.4799 120.919L82.0754 131.493C81.4174 132.762 82.3574 134.266 83.7672 134.266C87.0569 134.266 90.1586 132.574 91.8974 129.755L96.033 123.175C96.926 121.718 95.8921 119.839 94.2002 119.839H89.1717C88.4198 119.886 87.7618 120.308 87.4799 120.919Z" fill="#3D3941"/>
<path d="M21.0761 120.919L26.4806 131.493C27.1385 132.762 26.1986 134.266 24.7887 134.266C21.499 134.266 18.3973 132.574 16.6585 129.755L12.5229 123.175C11.63 121.718 12.6639 119.839 14.3557 119.839H19.3843C20.1362 119.886 20.7471 120.308 21.0761 120.919Z" fill="#3D3941"/>
<path d="M98.0542 170.03H13.7443C11.6765 170.03 10.0317 168.338 10.0317 166.317V148.647C10.0317 146.579 11.7235 144.934 13.7443 144.934H98.0072C100.075 144.934 101.72 146.626 101.72 148.647V166.317C101.767 168.385 100.075 170.03 98.0542 170.03Z" fill="#FA930C"/>
<path d="M31.5085 171.721H74.4624L72.2536 168.15C71.0787 166.223 70.0448 165.941 67.836 165.988L38.2288 165.612C35.7851 165.659 33.5763 167.163 32.5424 169.466L31.5085 171.721Z" fill="#0D0418"/>
<path d="M16.8765 144.4H120.065V144.434H84.4254H84.1422L83.9966 144.677L75.9153 158.161C75.915 158.162 75.9147 158.162 75.9144 158.163C74.8279 159.944 72.9204 161.023 70.8907 161.023H70.8905H70.8902H70.8899H70.8897H70.8894H70.8891H70.8888H70.8886H70.8883H70.888H70.8878H70.8875H70.8873H70.887H70.8867H70.8865H70.8862H70.886H70.8857H70.8854H70.8852H70.8849H70.8847H70.8844H70.8842H70.8839H70.8837H70.8834H70.8832H70.883H70.8827H70.8825H70.8822H70.882H70.8817H70.8815H70.8813H70.881H70.8808H70.8806H70.8803H70.8801H70.8799H70.8796H70.8794H70.8792H70.879H70.8787H70.8785H70.8783H70.8781H70.8778H70.8776H70.8774H70.8772H70.8769H70.8767H70.8765H70.8763H70.8761H70.8759H70.8757H70.8754H70.8752H70.875H70.8748H70.8746H70.8744H70.8742H70.874H70.8738H70.8736H70.8734H70.8732H70.873H70.8728H70.8726H70.8724H70.8722H70.872H70.8718H70.8716H70.8714H70.8712H70.871H70.8708H70.8706H70.8704H70.8703H70.8701H70.8699H70.8697H70.8695H70.8693H70.8691H70.869H70.8688H70.8686H70.8684H70.8682H70.8681H70.8679H70.8677H70.8675H70.8674H70.8672H70.867H70.8668H70.8667H70.8665H70.8663H70.8662H70.866H70.8658H70.8657H70.8655H70.8653H70.8652H70.865H70.8648H70.8647H70.8645H70.8644H70.8642H70.864H70.8639H70.8637H70.8636H70.8634H70.8633H70.8631H70.863H70.8628H70.8627H70.8625H70.8624H70.8622H70.8621H70.8619H70.8618H70.8616H70.8615H70.8613H70.8612H70.8611H70.8609H70.8608H70.8606H70.8605H70.8604H70.8602H70.8601H70.8599H70.8598H70.8597H70.8595H70.8594H70.8593H70.8591H70.859H70.8589H70.8588H70.8586H70.8585H70.8584H70.8583H70.8581H70.858H70.8579H70.8578H70.8576H70.8575H70.8574H70.8573H70.8572H70.857H70.8569H70.8568H70.8567H70.8566H70.8564H70.8563H70.8562H70.8561H70.856H70.8559H70.8558H70.8557H70.8555H70.8554H70.8553H70.8552H70.8551H70.855H70.8549H70.8548H70.8547H70.8546H70.8545H70.8544H70.8543H70.8542H70.8541H70.854H70.8539H70.8538H70.8537H70.8536H70.8535H70.8534H70.8533H70.8532H70.8531H70.853H70.8529H70.8528H70.8527H70.8526H70.8526H70.8525H70.8524H70.8523H70.8522H70.8521H70.852H70.8519H70.8519H70.8518H70.8517H70.8516H70.8515H70.8514H70.8514H70.8513H70.8512H70.8511H70.851H70.851H70.8509H70.8508H70.8507H70.8506H70.8506H70.8505H70.8504H70.8503H70.8503H70.8502H70.8501H70.85H70.85H70.8499H70.8498H70.8498H70.8497H70.8496H70.8496H70.8495H70.8494H70.8493H70.8493H70.8492H70.8492H70.8491H70.849H70.849H70.8489H70.8488H70.8488H70.8487H70.8486H70.8486H70.8485H70.8485H70.8484H70.8484H70.8483H70.8482H70.8482H70.8481H70.8481H70.848H70.848H70.8479H70.8478H70.8478H70.8477H70.8477H70.8476H70.8476H70.8475H70.8475H70.8474H70.8474H70.8473H70.8473H70.8472H70.8472H70.8471H70.8471H70.847H70.847H70.8469H70.8469H70.8469H70.8468H70.8468H70.8467H70.8467H70.8466H70.8466H70.8465H70.8465H70.8465H70.8464H70.8464H70.8463H70.8463H70.8463H70.8462H70.8462H70.8461H70.8461H70.8461H70.846H70.846H70.846H70.8459H70.8459H70.8459H70.8458H70.8458H70.8458H70.8457H70.8457H70.8457H70.8456H70.8456H70.8456H70.8455H70.8455H70.8455H70.8454H70.8454H70.8453H70.8453H70.8452H70.8452H70.8451H70.8451H70.845H70.845H70.8449H70.8449H70.8448H70.8448H70.8447H70.8447H70.8447H70.8446H70.8446H70.8446H70.8445H70.8445H70.8444H70.8444H70.8444H70.8444H70.8443H70.8443H70.8443H70.8442H70.8442H70.8441H70.8441H70.8441H70.844H70.844H70.844H70.8439H70.8439H70.8439H70.8438H70.8438H70.8438H70.8437L35.6931 160.882H35.6911C33.4443 160.882 31.3634 159.54 30.4105 157.505L24.4423 144.723L24.3076 144.434H23.9892H16.8796L16.8765 144.4ZM70.8887 160.99H70.8907C72.9443 160.99 74.8479 159.912 75.8793 158.16C75.8796 158.159 75.8799 158.159 75.8803 158.158L83.6327 145.191L84.085 144.434H83.2036H25.1641H24.3783L24.7112 145.146L30.4917 157.506L30.4916 157.506L30.4951 157.513C31.4677 159.509 33.5167 160.848 35.737 160.849C35.7374 160.849 35.7378 160.849 35.7381 160.849L70.8887 160.99Z" fill="#C7750A" stroke="black"/>
<path d="M31.5085 149.728H74.4624L72.2536 153.299C71.0787 155.226 69.0109 156.354 66.8021 156.307L38.2288 155.837C35.7851 155.79 33.5763 154.286 32.5424 151.983L31.5085 149.728Z" fill="#0D0418"/>
<path d="M38.6053 145.028L39.0752 149.916C39.1692 150.997 40.0621 151.843 41.19 151.843L60.8811 152.312C62.009 152.359 62.9489 151.514 63.0899 150.386L63.7009 145.075C63.8418 143.806 62.8549 142.678 61.5391 142.678H40.7671C39.4982 142.631 38.5113 143.759 38.6053 145.028Z" fill="#E1F1FF"/>
<path d="M60.928 152.829H60.881L41.1899 152.359C39.827 152.312 38.6991 151.279 38.5581 149.916L38.0882 145.028C37.9942 144.276 38.2761 143.524 38.7931 142.96C39.31 142.396 40.015 142.067 40.7669 142.067H61.5389C62.2908 142.067 63.0428 142.396 63.5597 142.96C64.0767 143.524 64.3116 144.276 64.2176 145.075L63.6067 150.386C63.4657 151.796 62.3378 152.829 60.928 152.829ZM39.1691 144.934L39.639 149.822C39.733 150.621 40.3909 151.279 41.1899 151.279L60.881 151.749C61.7269 151.796 62.4318 151.138 62.5258 150.339L63.1368 145.028C63.1838 144.558 63.0428 144.135 62.7608 143.759C62.4318 143.43 62.0089 143.242 61.5389 143.242H40.7669C40.2969 143.242 39.874 143.43 39.592 143.759C39.263 144.041 39.1221 144.511 39.1691 144.934Z" fill="#0D0418"/>
<path d="M16.5637 95.5888L20.0883 98.2206C20.6993 98.6436 21.4042 98.9255 22.1561 98.9255H87.6678C88.4198 98.9255 89.1247 98.6906 89.7357 98.2676L94.4352 94.7899C95.2811 94.179 95.7981 93.1921 95.8451 92.1582C96.221 83.0411 98.1479 72.6081 99.2757 66.9686C99.6987 64.8068 98.0539 62.786 95.8451 62.786H23.942C22.5321 62.786 21.2162 63.6319 20.6993 64.9948C17.3626 73.501 15.7648 83.182 15.2008 92.6751C15.1068 93.709 15.6238 94.8839 16.5637 95.5888Z" fill="#CBE3F8"/>
<path d="M15.6706 86.6598C15.4356 88.6336 15.2946 90.5604 15.1536 92.5342C15.0596 93.7091 15.6236 94.884 16.5635 95.5889L20.0881 98.2207C20.6991 98.6436 21.404 98.9256 22.1559 98.9256H87.6676C88.4196 98.9256 89.1245 98.6906 89.7355 98.2677L94.435 94.79C95.2809 94.1791 95.7979 93.1922 95.8449 92.1583C95.9389 90.3724 96.0329 88.5866 96.2208 86.7538H15.6706V86.6598Z" fill="#A1C5EB"/>
<path d="M60.7866 62.692H51.3405L36.9129 98.8786H46.359L60.7866 62.692Z" fill="#E1F1FF"/>
<path d="M77.4226 62.692H63.4179L48.9903 98.8786H62.995L77.4226 62.692Z" fill="#E1F1FF"/>
<path d="M30.2392 98.8786H34.9857L49.4133 62.6921H44.7138L30.2392 98.8786Z" fill="#E1F1FF"/>
<path d="M99.4642 63.303C98.6183 62.2691 97.3024 61.6582 95.9396 61.6582H23.9425C22.1097 61.6582 20.4178 62.7861 19.7599 64.5249C16.7522 72.2792 14.8723 81.6783 14.1674 92.4872C14.0734 94.0381 14.7314 95.4949 16.0002 96.4348L19.5249 99.0666C20.2768 99.6305 21.2637 99.9595 22.2036 99.9595H87.7153C88.7023 99.9595 89.5952 99.6775 90.3941 99.0666L95.0936 95.5889C96.2215 94.79 96.8795 93.5211 96.9265 92.1583C97.3024 83.0411 99.2292 72.5611 100.357 67.1097C100.639 65.7468 100.31 64.3839 99.4642 63.303ZM98.3363 66.6867C97.2084 72.1852 95.2346 82.8062 94.8587 92.0643C94.8117 92.8162 94.4827 93.4741 93.8718 93.9441L93.6368 94.1321L17.3631 94.884L17.1751 94.743C16.5172 94.2261 16.1412 93.4271 16.1882 92.5812C16.8462 82.0072 18.679 72.7961 21.6397 65.2298C22.0157 64.2899 22.9086 63.679 23.9425 63.679H95.9396C96.6915 63.679 97.3964 64.008 97.8664 64.5719C98.3363 65.1828 98.4773 65.9348 98.3363 66.6867Z" fill="#0D0418"/>
<path d="M20.6528 61.1881C19.9949 61.1881 19.384 61.6581 19.29 62.316C18.867 64.3838 18.3501 68.6134 20.9348 69.4123C24.3655 70.4932 93.0729 69.3654 93.0729 69.3654C93.0729 69.3654 99.8872 69.8823 101.72 62.551C101.955 61.6581 101.25 60.7652 100.31 60.7652L20.6528 61.1881Z" fill="#0D0418"/>
<path d="M94.5763 65.3238H89.6418C88.9839 65.3238 88.4669 64.8069 88.4669 64.1489C88.4669 63.491 88.9839 62.9741 89.6418 62.9741H94.5293C95.1873 62.9741 95.7042 63.491 95.7042 64.1489C95.7512 64.8069 95.1873 65.3238 94.5763 65.3238Z" fill="#E1F1FF"/>
<path d="M25.493 65.3238H20.6054C19.9475 65.3238 19.4305 64.8069 19.4305 64.1489C19.4305 63.491 19.9475 62.9741 20.6054 62.9741H25.493C26.1509 62.9741 26.6678 63.491 26.6678 64.1489C26.6678 64.8069 26.1509 65.3238 25.493 65.3238Z" fill="#E1F1FF"/>
<path d="M51.4813 95.8709L47.3457 90.4194C47.2987 89.9965 46.9227 89.6675 46.4997 89.7145L29.3464 90.6074C29.0644 90.6074 28.7824 90.7954 28.6414 91.0304L19.5243 91.3123C19.2893 91.3123 19.1014 91.4063 19.0074 91.5003C18.7724 91.7353 19.1014 92.0643 19.5243 92.0643H28.7824C28.9234 92.2052 29.1114 92.2522 29.2994 92.2522H45.7478L48.8495 96.6698C48.9905 96.8578 49.1785 96.9518 49.4135 96.9518H50.8703C51.4813 96.9518 51.8102 96.2939 51.4813 95.8709Z" fill="#0D0418"/>
<path d="M87.574 94.931L83.4384 89.4795C83.3914 89.0566 83.0154 88.7276 82.5924 88.7746L65.4391 89.6675C65.1571 89.6675 64.8751 89.8555 64.7342 90.0904L55.617 90.3724C55.3821 90.3724 55.1941 90.4664 55.1001 90.5604C54.8651 90.7954 55.1941 91.1244 55.617 91.1244H64.8751C65.0161 91.2653 65.2041 91.3123 65.3921 91.3123H81.8405L84.9422 95.7299C85.0832 95.9179 85.2712 96.0119 85.5062 96.0119H86.963C87.621 96.0119 87.9499 95.354 87.574 94.931Z" fill="#0D0418"/>
<path d="M14.0264 156.73H21.8277C22.8146 156.73 23.6135 155.931 23.6135 154.944V149.728C23.6135 148.741 22.8146 147.942 21.8277 147.942H14.0264C13.0395 147.942 12.2406 148.741 12.2406 149.728V154.944C12.1936 155.931 12.9925 156.73 14.0264 156.73Z" fill="#A1C5EB"/>
<path d="M21.7806 147.895H14.0264C13.8384 148.741 13.7914 149.587 13.8854 150.385C14.0264 151.184 14.3083 151.936 14.8253 152.641C16.0472 154.38 18.3029 155.508 20.6527 155.508C21.6866 155.508 22.7205 155.32 23.6134 154.85V149.681C23.6134 148.694 22.8145 147.895 21.7806 147.895Z" fill="#E1F1FF"/>
<path d="M23.2843 160.114V164.343C23.2843 165.189 22.7674 165.847 22.1095 165.8C18.4908 165.377 15.4831 165.377 12.8043 162.792C11.9584 161.946 12.1934 158.704 13.2273 158.704H22.2034C22.8144 158.704 23.2843 159.315 23.2843 160.114Z" fill="#A1C5EB"/>
<path d="M22.2042 158.704H14.9199C14.9199 159.033 14.9669 159.362 15.0608 159.738C15.3898 161.147 16.0008 162.463 16.9407 163.591C17.5986 164.343 18.3505 165.001 19.2434 165.518C20.1364 165.612 21.1233 165.706 22.1102 165.847C22.7211 165.941 23.2851 165.236 23.2851 164.39V160.161C23.2851 159.315 22.8151 158.704 22.2042 158.704Z" fill="#E1F1FF"/>
<path d="M95.0472 156.73H87.246C86.2591 156.73 85.4601 155.931 85.4601 154.944V149.728C85.4601 148.741 86.2591 147.942 87.246 147.942H95.0472C96.0341 147.942 96.833 148.741 96.833 149.728V154.944C96.833 155.931 96.0341 156.73 95.0472 156.73Z" fill="#A1C5EB"/>
<path d="M87.2451 147.895H94.9993C95.1873 148.741 95.2343 149.587 95.1403 150.386C94.9993 151.184 94.7173 151.936 94.2004 152.641C92.9785 154.38 90.7227 155.508 88.3729 155.508C87.339 155.508 86.3051 155.32 85.4122 154.85V149.681C85.4592 148.694 86.2581 147.895 87.2451 147.895Z" fill="#E1F1FF"/>
<path d="M85.7886 160.113V164.343C85.7886 165.189 86.3055 165.847 86.9635 165.8C90.5821 165.377 93.5898 165.377 96.2686 162.792C97.1145 161.946 96.8795 158.704 95.8456 158.704H86.8225C86.2585 158.704 85.7886 159.315 85.7886 160.113Z" fill="#A1C5EB"/>
<path d="M86.8224 158.704H94.1067C94.1067 159.033 94.0597 159.362 93.9657 159.738C93.6368 161.147 93.0258 162.463 92.0859 163.591C91.428 164.343 90.676 165.001 89.7831 165.518C88.8902 165.612 87.9033 165.706 86.9164 165.847C86.3055 165.941 85.7415 165.236 85.7415 164.39V160.161C85.7885 159.315 86.2585 158.704 86.8224 158.704Z" fill="#E1F1FF"/>
</svg>
